…
Extracting course descriptions from course catalogues
-----------------------------------------------------

We extract the description of each course from the course catalogues. Since the code is a little longish (see appendix) and does not add much to the script, I only show its outcome.

``` r
print(d_description)
```

    ## # A tibble: 831 x 3
    ##    Code    `Calendar Year` Description                                     
    ##    <chr>   <chr>           <chr>                                           
    ##  1 COR1002 2014-2015       "COR1002 - Philosophy of Science\r\nCourse coor~
    ##  2 COR1003 2014-2015       "COR1003 - Contemporary World History\r\nCourse~
    ##  3 COR1004 2014-2015       "COR1004 - Political Philosophy\r\nCourse coord~
    ##  4 COR1005 2014-2015       "COR1005 - Modeling Nature\r\nCourse coordinato~
    ##  5 HUM1003 2014-2015       "HUM1003 - Cultural Studies I: Doing Cultural S~
    ##  6 HUM1007 2014-2015       "HUM1007 - Introduction to Philosophy\r\nCourse~
    ##  7 HUM1010 2014-2015       "HUM1010 - Common Foundations of Law in Europe\~
    ##  8 HUM1011 2014-2015       "HUM1011 - Introduction to Art; Representations~
    ##  9 HUM1012 2014-2015       "HUM1012 - Pop Songs and Poetry: Theory and Ana~
    ## 10 HUM1013 2014-2015       "HUM1013 - The Idea of Europe: The Intellectual~
    ## # ... with 821 more rows
…
We save the course descriptions in the [tidy text format](https://www.tidytextmining.com/tidytext.html) with one row per combination of course, year and word

``` r
d_description <- unnest_tokens(
  tbl    = d_description, 
  output = word,
  input  = Description
  )
```

``` r
print(d_description)
```

    ## # A tibble: 340,594 x 3
    ##    Code    `Calendar Year` word       
    ##    <chr>   <chr>           <chr>      
    ##  1 COR1002 2014-2015       cor1002    
    ##  2 COR1002 2014-2015       philosophy 
    ##  3 COR1002 2014-2015       of         
    ##  4 COR1002 2014-2015       science    
    ##  5 COR1002 2014-2015       course     
    ##  6 COR1002 2014-2015       coordinator
    ##  7 COR1002 2014-2015       prof       
    ##  8 COR1002 2014-2015       dr         
    ##  9 COR1002 2014-2015       l          
    ## 10 COR1002 2014-2015       boon       
    ## # ... with 340,584 more rows
…
rm(stem_hunspell, my_dictionary)
```

``` r
print(d_description) # See humanities (original) - humanity (stem)
```

    ## # A tibble: 167,961 x 4
    ##    word_original word    Code    `Calendar Year`
    ##    <chr>         <chr>   <chr>   <chr>          
    ##  1 cor1002       cor1002 COR1002 2014-2015      
    ##  2 cor1002       cor1002 SSC3023 2014-2015      
    ##  3 cor1002       cor1002 COR1002 2015-2016      
    ##  4 cor1002       cor1002 SSC3023 2015-2016      
    ##  5 cor1002       cor1002 COR1002 2016-2017      
    ##  6 cor1002       cor1002 SSC3023 2016-2017      
    ##  7 cor1002       cor1002 COR1002 2017-2018      
    ##  8 cor1002       cor1002 HUM3051 2017-2018      
    ##  9 cor1002       cor1002 SSC2067 2017-2018      
    ## 10 cor1002       cor1002 SSC3023 2017-2018      
    ## # ... with 167,951 more rows
…
  # Join with d_course to have additional information about the courses
  left_join(
    d_course, 
    by = "Code"
    )
  

print(tf_idf)
```

    ## # A tibble: 23,790 x 9
    ##    Code  word      n     tf   idf tf_idf `Course Title` Cluster Title_short
    ##    <chr> <chr> <int>  <dbl> <dbl>  <dbl> <chr>          <chr>   <chr>      
    ##  1 SSC3~ poli~    34 0.0783  1.82  0.142 Public Policy~ Govern~ Public Pol~
    ##  2 UGR3~ sear~    30 0.106   1.02  0.108 Undergraduate~ Methods Undergradu~
    ##  3 PRO1~ sear~    27 0.117   1.02  0.119 Research Proj~ Methods Research P~
    ##  4 SKI3~ conf~    26 0.0762  4.05  0.309 Preparing Con~ Skills  Preparing ~
    ##  5 SSC2~ law      26 0.124   2.10  0.262 Law and Socie~ Sociol~ Law and So~
    ##  6 SSC2~ conf~    26 0.102   2.26  0.230 Conflict Reso~ Int. R~ Conflict R~
    ##  7 SSC3~ trade    26 0.0539  3.54  0.191 International~ Intern~ Internatio~
    ##  8 HUM2~ memo~    25 0.0617  3.36  0.207 Cultural Reme~ Cultur~ Cult. Reme~
    ##  9 SKI2~ argu~    25 0.102   2.51  0.255 Argumentation~ Skills  Arg. I     
    ## 10 SSC2~ publ~    25 0.115   1.97  0.226 Public Health~ Govern~ Public Hea~
    ## # ... with 23,780 more rows
…
