…
``` r
corpus <- Corpus(x             = DirSource("Catalogues"),
                 readerControl = list(reader = readPDF(control = list(text = "-layout"))))
```

Extracting Course Descriptions from Course Catalogues
-----------------------------------------------------

We extract the description of each course from the course catalogues. The code is a little longish and does not add much to the script, so I included it in a seperate appendix.

``` r
print(d_description)
```

    ## # A tibble: 831 x 3
    ##    Code    `Calendar Year` Description                                    
    ##    <chr>   <chr>           <chr>                                          
    ##  1 COR1002 2014-2015       "COR1002 - Philosophy of Science\r\nCourse coo~
    ##  2 COR1003 2014-2015       "COR1003 - Contemporary World History\r\nCours~
    ##  3 COR1004 2014-2015       "COR1004 - Political Philosophy\r\nCourse coor~
    ##  4 COR1005 2014-2015       "COR1005 - Modeling Nature\r\nCourse coordinat~
    ##  5 HUM1003 2014-2015       "HUM1003 - Cultural Studies I: Doing Cultural ~
    ##  6 HUM1007 2014-2015       "HUM1007 - Introduction to Philosophy\r\nCours~
    ##  7 HUM1010 2014-2015       "HUM1010 - Common Foundations of Law in Europe~
    ##  8 HUM1011 2014-2015       "HUM1011 - Introduction to Art; Representation~
    ##  9 HUM1012 2014-2015       "HUM1012 - Pop Songs and Poetry: Theory and An~
    ## 10 HUM1013 2014-2015       "HUM1013 - The Idea of Europe: The Intellectua~
    ## # ... with 821 more rows

Tidying
-------

We save the course descriptions in the [tidy text format](https://www.tidytextmining.com/tidytext.html) with one row per course-year-term.

``` r
d_description_tidy <- unnest_tokens(d_description, output = word, input = Description)
```

``` r
print(d_description_tidy)
```

    ## # A tibble: 340,594 x 3
    ##    Code    `Calendar Year` word       
    ##    <chr>   <chr>           <chr>      
    ##  1 COR1002 2014-2015       cor1002    
    ##  2 COR1002 2014-2015       philosophy 
    ##  3 COR1002 2014-2015       of         
    ##  4 COR1002 2014-2015       science    
    ##  5 COR1002 2014-2015       course     
    ##  6 COR1002 2014-2015       coordinator
    ##  7 COR1002 2014-2015       prof       
    ##  8 COR1002 2014-2015       dr         
    ##  9 COR1002 2014-2015       l          
    ## 10 COR1002 2014-2015       boon       
    ## # ... with 340,584 more rows
…
# Full join
d_description_stem <- d_description_tidy %>%
  full_join(my_dictionary, by = "word") %>%
  rename(word_original = word,
         word          = word_stem) %>%
  # Removing stop words
  filter(!word %in% stop_words$word,
         !word %in% as.character(1:1e3))
```

``` r
print(d_description_stem) # See humanities (original) - humanity (stem)
```

    ## # A tibble: 172,162 x 4
    ##    Code    `Calendar Year` word_original word       
    ##    <chr>   <chr>           <chr>         <chr>      
    ##  1 COR1002 2014-2015       cor1002       cor1002    
    ##  2 COR1002 2014-2015       philosophy    philosophy 
    ##  3 COR1002 2014-2015       science       science    
    ##  4 COR1002 2014-2015       coordinator   coordinator
    ##  5 COR1002 2014-2015       prof          prof       
    ##  6 COR1002 2014-2015       dr            dr         
    ##  7 COR1002 2014-2015       boon          boon       
    ##  8 COR1002 2014-2015       faculty       faculty    
    ##  9 COR1002 2014-2015       humanities    humanity   
    ## 10 COR1002 2014-2015       sciences      science    
    ## # ... with 172,152 more rows
…
We use the function `bind_tf_idf()` to obtain the tf-idf of each term for the year 2018-2019. We then identify the most important terms of each cluster and course\[^9\] and display them both as barplots and word clouds. In the latter, the size and the color of a term indicates its tf-idf.

``` r
tf_idf <- d_description_stem %>%
  filter(`Calendar Year` == "2018-2019") %>%
  count(Code, word, sort = T) %>%
  bind_tf_idf(term = word, document = Code, n = n) %>%
  left_join(d_course, by = "Code")
  

print(tf_idf)
```

    ## # A tibble: 24,033 x 9
    ##    Code  word      n     tf   idf tf_idf `Course Title` Cluster Title_sho~
    ##    <chr> <chr> <int>  <dbl> <dbl>  <dbl> <chr>          <chr>   <chr>     
    ##  1 SSC3~ poli~    34 0.0757  1.82  0.137 Public Policy~ Govern~ Public Po~
    ##  2 UGR3~ sear~    30 0.101   1.02  0.103 Undergraduate~ Methods Undergrad~
    ##  3 PRO1~ sear~    27 0.116   1.02  0.119 Research Proj~ Methods Res. Proj~
    ##  4 SKI3~ conf~    26 0.0716  4.05  0.290 Preparing Con~ Skills  Preparing~
    ##  5 SSC2~ law      26 0.120   2.10  0.253 Law and Socie~ Sociol~ Law and S~
    ##  6 SSC2~ conf~    26 0.0992  2.26  0.224 Conflict Reso~ Int. R~ Conflict ~
    ##  7 SSC3~ trade    26 0.0533  3.54  0.189 International~ Intern~ Internati~
    ##  8 HUM2~ memo~    25 0.0595  3.36  0.200 Cultural Reme~ Cultur~ Cultural ~
    ##  9 SKI2~ argu~    25 0.0992  2.51  0.249 Argumentation~ Skills  Argumenta~
    ## 10 SSC2~ publ~    25 0.112   1.97  0.220 Public Health~ Govern~ Public He~
    ## # ... with 24,023 more rows
…
