…
    # Save Description
    Code <- substring(description, first = 1, last = 7)      
    year <- calendar_years[n]
    d_description <- d_description %>%
      add_row(Code            = Code,
              `Calendar Year` = year,
              Description     = description)
    
  } # close for-loop 2 (page)
} # close for-loop 1 (n)

print(d_description)
```

    ## # A tibble: 831 x 3
    ##    Code    `Calendar Year` Description                                    
    ##    <chr>   <chr>           <chr>                                          
    ##  1 COR1002 2014-2015       "COR1002 - Philosophy of Science\r\nCourse coo~
    ##  2 COR1003 2014-2015       "COR1003 - Contemporary World History\r\nCours~
    ##  3 COR1004 2014-2015       "COR1004 - Political Philosophy\r\nCourse coor~
    ##  4 COR1005 2014-2015       "COR1005 - Modeling Nature\r\nCourse coordinat~
    ##  5 HUM1003 2014-2015       "HUM1003 - Cultural Studies I: Doing Cultural ~
    ##  6 HUM1007 2014-2015       "HUM1007 - Introduction to Philosophy\r\nCours~
    ##  7 HUM1010 2014-2015       "HUM1010 - Common Foundations of Law in Europe~
    ##  8 HUM1011 2014-2015       "HUM1011 - Introduction to Art; Representation~
    ##  9 HUM1012 2014-2015       "HUM1012 - Pop Songs and Poetry: Theory and An~
    ## 10 HUM1013 2014-2015       "HUM1013 - The Idea of Europe: The Intellectua~
    ## # ... with 821 more rows
